{
    "ID": "6065f1f2e8f97a4063902566",
    "name": "oklal",
    "email": "jhaji17@gmail.com",
    "password": "$2a$10$bD5JK4xgo4GlrNTWRmdf2OtUJxzukeZyRPDmjQn7uOQCYb6HzuG42",
    "diary_password": "$2a$10$WUS0I7/ksKFj0wMA1nDPNe.Zuju38fW0/7qxd7rwGZOwoSGEZpKri",
    "age": 76,
    "gender": "female",
    "tasks": null,
    "timelines": [
        {
            "totals":1,
            "earn":1,
            "timelines":[
                {
                    "total":2,
                    "earn":3,
                    "timelines":[]
                }
            ]
        }
    ],
    "contacts": null,
    "meetups": null,
    "notes": null
}